[
   {  
      "Name": "chevrolet chevelle malibu ss",
      "Miles_per_Gallon": 18,
      "Cylinders": 8,
      "Displacement": 307,
      "Horsepower": 130,
      "Weight_in_lbs": 3504,
      "Acceleration": 12,
      "Year": "1970-01-01",
      "Origin": "USA",
      "Price": "39,900",
      "url":"https://supericebuckett.s3.eu-west-3.amazonaws.com/cars/1970_chevrolet_chevelle_ss.webp",
      "isFavorite":false
   },
   {  
      "Name": "buick skylark",
      "Miles_per_Gallon": 15,
      "Cylinders": 8,
      "Displacement": 350,
      "Horsepower": 165,
      "Weight_in_lbs": 3693,
      "Acceleration": 11.5,
      "Year": "1970-01-01",
      "Origin": "USA",
      "Price": "32,500",
      "url":".https://supericebuckett.s3.eu-west-3.amazonaws.com/cars/1970_buick_skylark320.webp",
      "isFavorite":false
   },
   {

      "Name": "plymouth satellite",
      "Miles_per_Gallon": 18,
      "Cylinders": 8,
      "Displacement": 318,
      "Horsepower": 150,
      "Weight_in_lbs": 3436,
      "Acceleration": 11,
      "Year": "1970-01-01",
      "Origin": "USA",
      "Price": "85,000",
      "url":"https://supericebuckett.s3.eu-west-3.amazonaws.com/cars/1970-plymouth-satellite.webp",
      "isFavorite":false
   },
   {  
      "Name": "amc rebel sst",
      "Miles_per_Gallon": 16,
      "Cylinders": 8,
      "Displacement": 304,
      "Horsepower": 150,
      "Weight_in_lbs": 3433,
      "Acceleration": 12,
      "Year": "1970-01-01",
      "Origin": "USA",
      "Price": "31,500",
      "url":"https://supericebuckett.s3.eu-west-3.amazonaws.com/cars/1970-amc-rebel-sst.webp",
      "isFavorite":false
   },
   {  
      "Name": "ford torino",
      "Miles_per_Gallon": 17,
      "Cylinders": 8,
      "Displacement": 302,
      "Horsepower": 140,
      "Weight_in_lbs": 3449,
      "Acceleration": 10.5,
      "Year": "1970-01-01",
      "Origin": "USA",
      "Price": "35,000",
      "url":"https://supericebuckett.s3.eu-west-3.amazonaws.com/cars/1970_ford_torino_cobra_sportsroof_chiolero.webp",
      "isFavorite":false
   },
   {

      "Name": "ford galaxie 500",
      "Miles_per_Gallon": 15,
      "Cylinders": 8,
      "Displacement": 429,
      "Horsepower": 198,
      "Weight_in_lbs": 4341,
      "Acceleration": 10,
      "Year": "1970-01-01",
      "Origin": "USA",
      "Price": "29,995",
      "url":"https://supericebuckett.s3.eu-west-3.amazonaws.com/cars/1970-ford-galaxie-500-fastback.webp",
      "isFavorite":false
   },
   {
      "Name": "chevrolet impala",
      "Miles_per_Gallon": 14,
      "Cylinders": 8,
      "Displacement": 454,
      "Horsepower": 220,
      "Weight_in_lbs": 4354,
      "Acceleration": 9,
      "Year": "1970-01-01",
      "Origin": "USA",
      "Price": "35,900",
      "url":"https://supericebuckett.s3.eu-west-3.amazonaws.com/cars/1970_chevrolet_impala.webp",
      "isFavorite":false
   },
   {  
      "Name": "plymouth fury III",
      "Miles_per_Gallon": 14,
      "Cylinders": 8,
      "Displacement": 440,
      "Horsepower": 215,
      "Weight_in_lbs": 4312,
      "Acceleration": 8.5,
      "Year": "1970-01-01",
      "Origin": "USA",
      "Price": "26,500",
      "url":"https://supericebuckett.s3.eu-west-3.amazonaws.com/cars/1970_plymouth_fury_iii.webp",
      "isFavorite":false
   },
   {
      "Name": "pontiac catalina",
      "Miles_per_Gallon": 14,
      "Cylinders": 8,
      "Displacement": 455,
      "Horsepower": 225,
      "Weight_in_lbs": 4425,
      "Acceleration": 10,
      "Year": "1970-01-01",
      "Origin": "USA",
      "Price": "23,995",
      "url":"https://supericebuckett.s3.eu-west-3.amazonaws.com/cars/1970_pontiac_catalina_hardtop_coupe_1.webp",
      "isFavorite":false
   },
   {

      "Name": "amc ambassador dpl",
      "Miles_per_Gallon": 15,
      "Cylinders": 8,
      "Displacement": 390,
      "Horsepower": 190,
      "Weight_in_lbs": 3850,
      "Acceleration": 8.5,
      "Year": "1970-01-01",
      "Origin": "USA",
      "Price": "20,495",
      "url":"https://supericebuckett.s3.eu-west-3.amazonaws.com/cars/1970_70-amc-ambassador-wagon.webp",
      "isFavorite":false
   },
  
   {
      "Name": "chevrolet chevelle concours (sw)",
      "Miles_per_Gallon": null,
      "Cylinders": 8,
      "Displacement": 350,
      "Horsepower": 165,
      "Weight_in_lbs": 4142,
      "Acceleration": 11.5,
      "Year": "1970-01-01",
      "Origin": "USA",
      "Price": "62,900",
      "url":"https://supericebuckett.s3.eu-west-3.amazonaws.com/cars/1970_chevrolet_chevelle_concours_(sw).webp",
      "isFavorite":false
   },
   {
      "Name": "plymouth 'cuda 340",
      "Miles_per_Gallon": 14,
      "Cylinders": 8,
      "Displacement": 340,
      "Horsepower": 160,
      "Weight_in_lbs": 3609,
      "Acceleration": 8,
      "Year": "1970-01-01",
      "Origin": "USA",
      "Price": "59,998",
      "url":"https://supericebuckett.s3.eu-west-3.amazonaws.com/cars/1970-Plymouth-Cuda-.webp",
      "isFavorite":false
   },
   {
      "Name": "ford mustang boss 302",
      "Miles_per_Gallon": null,
      "Cylinders": 8,
      "Displacement": 302,
      "Horsepower": 140,
      "Weight_in_lbs": 3353,
      "Acceleration": 8,
      "Year": "1970-01-01",
      "Origin": "USA",
      "Price": "300,000",
      "url":"https://supericebuckett.s3.eu-west-3.amazonaws.com/cars/1970-ford-mustang-boss-302.webp",
      "isFavorite":false
   },
   {
      "Name": "chevrolet monte carlo",
      "Miles_per_Gallon": 15,
      "Cylinders": 8,
      "Displacement": 400,
      "Horsepower": 150,
      "Weight_in_lbs": 3761,
      "Acceleration": 9.5,
      "Year": "1970-01-01",
      "Origin": "USA",
      "Price": "44,900",
      "url":"https://supericebuckett.s3.eu-west-3.amazonaws.com/cars/1970chevrolet_monte-carlo_coupe.webp",
      "isFavorite":false
   },
   {
      "Name": "dodge challenger r/t",
      "Miles_per_Gallon": 15,
      "Cylinders": 8,
      "Displacement": 383,
      "Horsepower": 170,
      "Weight_in_lbs": 3563,
      "Acceleration": 10,
      "Year": "1970-01-01",
      "Origin": "USA",
      "Price": "299,900",
      "url":"https://supericebuckett.s3.eu-west-3.amazonaws.com/cars/1970_dodge_challenger_se.webp",
      "isFavorite":false
   }
]

